﻿-- Adminer 4.3.1 MySQL dump

SET NAMES utf8;
SET time_zone = '+00:00';
SET foreign_key_checks = 0;
SET sql_mode = 'NO_AUTO_VALUE_ON_ZERO';

DROP TABLE IF EXISTS `doit_chat`;
CREATE TABLE `doit_chat` (
  `mID` int(11) NOT NULL AUTO_INCREMENT,
  `uID` int(11) NOT NULL,
  `crID` int(11) DEFAULT NULL,
  `message` text NOT NULL,
  `timestamp` int(11) NOT NULL,
  PRIMARY KEY (`mID`),
  KEY `uID` (`uID`),
  CONSTRAINT `doit_chat_ibfk_2` FOREIGN KEY (`uID`) REFERENCES `doit_users` (`uID`) ON UPDATE CASCADE
) ENGINE=InnoDB DEFAULT CHARSET=utf8;

INSERT INTO `doit_chat` (`mID`, `uID`, `crID`, `message`, `timestamp`) VALUES
(66,	1,	0,	'blup',	1518702743),
(67,	1,	0,	'das ist der komischte fehler aller zeiten',	1518703067),
(68,	1,	0,	'das ist ein test',	1518765738),
(69,	1,	0,	'bliblablup',	1518765748),
(70,	1,	0,	':-)',	1518766226),
(71,	3,	0,	':--)',	1518766610),
(72,	3,	0,	'blup',	1518767895),
(73,	1,	0,	'blupdiblup',	1518768636),
(74,	3,	0,	'das ist ein test',	1518768670),
(75,	3,	0,	'...',	1518768852),
(76,	3,	0,	'helau',	1518768919),
(77,	3,	0,	'juhu',	1518769018),
(78,	1,	0,	'wenn ich jetzt was schreibe',	1518769219),
(79,	3,	0,	'dies ist ein test..',	1518769315),
(80,	3,	0,	'bliblablup der marius hat den blup tri tra trullala',	1518769364),
(81,	3,	0,	'das ist noch mal ein test den ich grad versemmel',	1518769830),
(82,	3,	0,	'hä?',	1518769874),
(83,	3,	0,	'das ist ein test vom gedankentropfen',	1518770003),
(84,	1,	0,	'blup',	1518770066),
(85,	1,	0,	'blup',	1518770453),
(86,	1,	0,	'das ist noch so\'n blöder test',	1518770625),
(87,	3,	0,	'das ist ein test',	1518771495),
(88,	3,	0,	':-)',	1518771511),
(89,	1,	0,	'hä?',	1518773018),
(90,	1,	0,	'Das ist ein test',	1518773133),
(91,	1,	0,	'das ist ein test',	1518774339),
(92,	1,	0,	'wenn ich dies schreibe',	1518774377),
(93,	3,	0,	'das ist ein weiterer test',	1518774987),
(94,	3,	0,	'blup',	1518775481),
(95,	3,	0,	'testemich',	1518775594),
(96,	1,	0,	'blup',	1518776242),
(97,	3,	0,	'das ist ein test',	1518776314),
(98,	1,	0,	':-)',	1518776441),
(99,	1,	0,	'hallo',	1518776472),
(100,	1,	0,	'hurra der gerrit der ist da',	1518776644),
(101,	1,	0,	'blup',	1518777437),
(102,	1,	0,	'tada',	1518777521),
(103,	1,	0,	'blup',	1518777946),
(104,	1,	0,	'blup',	1518778753),
(105,	3,	0,	'blup',	1518778807),
(106,	3,	0,	'der johannes ist da und schaut sich das an',	1518778832),
(107,	3,	0,	'die julia schaut sich das hier an',	1518778974),
(108,	1,	0,	'test',	1518780173),
(109,	1,	0,	'blup',	1518780181),
(110,	1,	0,	'hall bychert wie geht es ihnen',	1518780334),
(111,	3,	0,	'vielen dank mir geht es super',	1518780343),
(112,	1,	0,	'ja prima der chat funktioniert jetzt endlich',	1518780352),
(113,	3,	0,	'ja das sehe ich beim start ist der bildschirm erstmal leer aber das macht ja nix',	1518780368),
(114,	1,	0,	'hehe',	1518780379),
(115,	1,	0,	'servus',	1518780941),
(116,	3,	0,	'hi',	1518780946),
(117,	1,	0,	'cool das funktioniert ja',	1518780964),
(118,	3,	0,	'sehr gelungen',	1518780977),
(119,	1,	0,	'ja cool das wars schon danke für den test',	1518780987),
(120,	1,	0,	':-)',	1519032313),
(121,	1,	0,	':-)',	1519032372),
(122,	1,	0,	'das ist ein test :‑( ob das auch so funktioniert!',	1519032574),
(123,	1,	0,	':-) :‑(',	1519032678),
(124,	1,	0,	':-D',	1519032841),
(125,	1,	0,	':-) :‑D :‑( :\'‑(',	1519033523),
(126,	1,	0,	'das heist das:-) müsste er erkennen',	1519034124),
(127,	1,	0,	'blibla:-(blup der marius hat den bluü',	1519034259),
(128,	1,	0,	'blibla:-)blup',	1519034284),
(129,	1,	0,	':\'-( funst der?',	1519034867),
(130,	1,	0,	':-(',	1519034913),
(131,	1,	0,	':-D',	1519034922),
(132,	1,	0,	':-)',	1519034948),
(133,	1,	0,	':-D',	1519034951),
(134,	1,	0,	':-) :‑D :‑( :\'‑(',	1519034982),
(135,	1,	0,	':‑D',	1519035067),
(136,	1,	0,	':-(',	1519035076),
(137,	1,	0,	':‑(',	1519035087),
(138,	1,	0,	'komische sache das mit den emoticons :-)',	1519035199),
(139,	1,	0,	':-D funst wohl oder?',	1519035229),
(140,	1,	0,	':-)',	1519035453),
(141,	1,	0,	':-)',	1519035473),
(142,	1,	0,	':-(',	1519035479),
(143,	1,	0,	':-(',	1519040236),
(144,	1,	0,	':‑(',	1519040266),
(145,	1,	0,	':-)',	1519040298),
(146,	1,	0,	':-(',	1519040688),
(147,	1,	0,	':-(',	1519040716),
(148,	1,	0,	':-(',	1519040813),
(149,	1,	0,	':‑(',	1519040869),
(150,	1,	0,	':-(',	1519041206),
(151,	1,	0,	':\'-(',	1519041417),
(152,	1,	0,	':-)',	1519041662),
(153,	1,	0,	':‑( :-(',	1519041858),
(154,	1,	0,	':‑(:‑(:‑( :-(:-(:-(',	1519041893),
(155,	1,	0,	':-(',	1519041940),
(156,	1,	0,	':-(',	1519041945),
(157,	1,	0,	':-(',	1519042028),
(158,	1,	0,	':‑(',	1519042035),
(159,	1,	0,	':-(',	1519042244),
(160,	1,	0,	':‑D',	1519042431),
(161,	1,	0,	':-D',	1519042437),
(162,	1,	0,	':-)',	1519042749),
(163,	3,	0,	':-(',	1519045135),
(164,	3,	0,	':-)',	1519045141),
(165,	1,	0,	'das ist so doof mensch',	1519045149),
(166,	1,	0,	':\'-(',	1519045231),
(167,	1,	0,	':-) :‑D :‑( :\'‑(',	1519045310),
(168,	1,	0,	':-) :-D :-( :\'-(',	1519045326),
(169,	3,	0,	'super geil die emoticons funktionieren',	1519045338),
(170,	1,	0,	'ja geil gell?',	1519045403),
(171,	1,	0,	'das:-Ddasvorher:-(nichtgeklappthat',	1519045732),
(172,	3,	0,	'jaums:-Dbesserfunstdas:\'-(jetzt',	1519046032),
(173,	1,	0,	':-D',	1519046361),
(174,	1,	0,	':-) :‑D :‑( :\'‑(',	1519046880),
(175,	1,	0,	'so gerrit das ist mein chat :-D',	1519047600),
(176,	1,	0,	'gib mal : - D zusammengeschrieben ein',	1519047643),
(177,	2,	0,	'und jetzt?',	1519047675),
(178,	2,	0,	':-D',	1519047703),
(179,	1,	0,	'vier emoticons kann er',	1519047714),
(180,	2,	0,	':-(',	1519047729),
(181,	1,	0,	': -)   :-(  :-D   : \' - (',	1519047738),
(182,	1,	0,	': - )',	1519047747),
(183,	2,	0,	':-)',	1519047751),
(184,	1,	0,	': - D',	1519047752),
(185,	1,	0,	': \' - (',	1519047777),
(186,	1,	0,	': - (',	1519047788),
(187,	2,	0,	'Irgend ein Text :\'-( und weiter im text',	1519047861),
(188,	1,	0,	'ichmachnochmal:-(nentest',	1519048099),
(189,	2,	0,	'dermanuel:-)testetgeradedenchat',	1519048867),
(190,	2,	0,	'mememe',	1519048921),
(191,	1,	0,	'hallo manuel',	1519048952),
(192,	2,	0,	'ah ;)',	1519048959),
(193,	2,	0,	'hallo',	1519048970),
(194,	1,	0,	'läuft :-)',	1519048978),
(195,	2,	0,	'hm',	1519048988),
(196,	1,	0,	'optisch kein meisterwerk aber immerhin',	1519049000),
(197,	2,	0,	'nee',	1519049002),
(198,	1,	0,	':-(',	1519049013),
(199,	2,	0,	'Ich muss immer wieder runter scrollen',	1519049029),
(200,	2,	0,	'komm mal bitte nochmal rüber',	1519049043),
(201,	1,	0,	'ja ich werd es umändern das die neusten oben angezeigt werden',	1519049048),
(202,	2,	0,	'hallo',	1519049083),
(203,	2,	0,	'hallo',	1519049116),
(204,	1,	0,	':-)',	1519049573),
(205,	1,	0,	'blibla:-(blup',	1519049580),
(206,	1,	0,	'die neuesten nachrichten :\'-( immer zuerst',	1519049921),
(207,	1,	0,	':-) :-D :-( :\'-(',	1519109814),
(208,	1,	0,	':-) :‑D :‑( :\'‑(',	1519110266),
(209,	1,	0,	'blup',	1519110332),
(210,	1,	0,	':-) :‑D :‑( :\'‑(',	1519111026),
(211,	1,	0,	':-) :‑D :‑( :\'‑(',	1519111045),
(212,	1,	0,	':-) :-( :\'-( :-D',	1519111056),
(213,	1,	0,	':-) :‑D :‑( :\'‑(',	1519111995),
(214,	1,	0,	':-)',	1519112894),
(215,	1,	0,	':-D',	1519112930),
(216,	1,	0,	':-) :-D :-( :\'-(',	1519112943),
(217,	2,	0,	':-) Hallo der Herr',	1519113071),
(218,	2,	0,	'Es funktioniert! Das ist ja der Wahnsinn!',	1519113085),
(219,	1,	0,	'hallo herr nowak',	1519113090),
(220,	2,	0,	'Ich sitze grade hier und hab ein richtig breites Grinsen im Gesicht! :-D',	1519113110),
(221,	1,	0,	'Ja cool er funktioniert :-D',	1519113129),
(222,	2,	0,	'Superstark! Ehrlich! :) :) :)',	1519113133),
(223,	2,	0,	'Ahhh mit Strich',	1519113141),
(224,	1,	0,	'Sehr schön :-(',	1519113148),
(225,	2,	0,	':-) ;-) ;-)',	1519113150),
(226,	1,	0,	'genau',	1519113156),
(227,	1,	0,	'doppelpunkt',	1519113164),
(228,	1,	0,	'Und haben Sie den Chat schon hacken können?',	1519113948),
(229,	1,	0,	'test',	1519115435),
(230,	1,	0,	':-)',	1519116565),
(231,	1,	0,	'Test :-)',	1519118040),
(232,	1,	0,	'Wenn ich hier jetzt was neues schreibe :-D',	1519118125),
(233,	1,	0,	':-) :-D :-( :\'-(',	1519126893),
(234,	1,	0,	'Wie ist es jetzt?',	1519127362),
(235,	1,	0,	'wie i&szlig;t es jetzt?',	1519127473),
(236,	1,	0,	'Ich warte auf Frau Amin',	1519128013),
(237,	1,	0,	'Die will den Chat ausprobieren',	1519128024),
(238,	1,	0,	':-) :-D :-( :\'-(',	1519128434),
(239,	1,	0,	'wenn ich was schreibe',	1519129638),
(240,	3,	0,	'wenn ich was schreibe :-D',	1519130358),
(241,	1,	0,	'kjkjk',	1519133134),
(242,	1,	0,	'fsd',	1519133143),
(243,	1,	0,	'',	1519133161),
(244,	1,	0,	'',	1519133191),
(245,	1,	0,	'',	1519133193),
(246,	5,	0,	'Sehr beeindruckend',	1519133235),
(247,	5,	0,	'Gute gemacht',	1519133242),
(248,	5,	0,	':-)',	1519133259),
(249,	5,	0,	'',	1519133414),
(250,	1,	0,	'',	1519133599),
(251,	1,	0,	'',	1519133607),
(252,	1,	0,	'test',	1519133680),
(253,	1,	0,	'test',	1519133696),
(254,	1,	0,	'test',	1519133697),
(255,	1,	0,	'test',	1519133712),
(256,	1,	0,	'test',	1519133718),
(257,	1,	0,	'bliblablup',	1519133766),
(258,	1,	0,	'blup',	1519133846),
(259,	1,	0,	'jhjkhkk',	1519133853),
(260,	1,	0,	'gjhgjh',	1519133874),
(261,	1,	0,	'bliblablup',	1519133927),
(262,	5,	0,	'Hallo',	1519134024),
(263,	1,	0,	':-) :‑D :‑( :\'‑(',	1519134512),
(264,	1,	0,	':-D :-D :-( :\'-(',	1519134525),
(265,	1,	0,	'test',	1519134621),
(266,	1,	0,	'Ich schreib jetzt zu demo zwecken :-)',	1519135273),
(267,	1,	0,	':-)',	1519197338),
(268,	1,	0,	':-) :-) :-( :\'-(',	1519197350),
(269,	1,	0,	'blup',	1519197556),
(270,	1,	0,	'das ist ein test',	1519197783),
(271,	1,	0,	'test',	1519197791),
(272,	1,	0,	':-) :‑D :‑( :\'‑(',	1519197824),
(273,	1,	0,	':-) :-D :-( :\'-(',	1519197829),
(274,	1,	0,	'test',	1519198109),
(275,	1,	0,	'blup',	1519198283),
(276,	1,	0,	'test',	1519198586),
(277,	1,	0,	'Das ist ein weiterer Test',	1519198641),
(278,	1,	0,	'Das ist ein weiterer Test',	1519198712),
(279,	1,	0,	'H&auml;?',	1519198742),
(280,	1,	0,	'Ok jetzt funktioniert das wieder! Sehr gut. Warum das in den JS Dateien nicht funktioniert hat keine Ahnung!',	1519198765),
(281,	1,	0,	':-) :-D :-( :\'-(',	1519203132),
(282,	1,	0,	'Das ist jetzt ein Test',	1519207334),
(283,	1,	0,	':-)',	1519207345),
(284,	1,	0,	'test',	1519208105),
(285,	1,	0,	'Das ist ein Test :-) :-D :-( :\'-(',	1519210234),
(286,	3,	0,	'test',	1519210640),
(287,	3,	0,	'test',	1519210705),
(288,	3,	0,	'test',	1519211110),
(289,	1,	0,	'blup :-)',	1519211126),
(290,	3,	0,	'hallo',	1519211188),
(291,	1,	0,	'Test!',	1519211192),
(292,	3,	0,	'bliblablup',	1519211247),
(293,	3,	0,	'Test ! :-)',	1519211307),
(294,	3,	0,	'test',	1519211404),
(295,	3,	0,	':-) :-D :-( :\'-(',	1519211434),
(296,	1,	0,	'test',	1519218043),
(297,	1,	0,	'blup',	1519218874),
(298,	3,	0,	'Das ist ein Test...',	1519284994),
(299,	1,	0,	':-) :-D :-( :\'-(',	1519285946),
(300,	3,	0,	'Dieser Text wird gestrichen',	1519290205),
(301,	1,	0,	'Das ist ein Test !',	1519298321),
(302,	3,	0,	'Teste mich!',	1519300707),
(303,	1,	0,	'blup',	1519305621),
(304,	3,	0,	'Das ist ein Test...',	1519306307),
(305,	1,	NULL,	'Test',	1519374922),
(306,	1,	NULL,	'Test',	1519379222),
(307,	1,	NULL,	'test',	1519379357),
(308,	1,	2,	'test',	1519379465),
(309,	3,	1,	':-)',	1519379499),
(310,	1,	2,	':-)',	1519379810),
(311,	1,	1,	':-) :-D :-( :\'-(',	1519381367),
(312,	1,	1,	'Das ist ein Test :)',	1519635539),
(313,	1,	1,	'Das ist ein Test :-)',	1519635585),
(314,	3,	1,	'Ich schreib mal was!',	1519635851),
(315,	1,	1,	'Test',	1519636972);

DROP TABLE IF EXISTS `doit_chatrooms`;
CREATE TABLE `doit_chatrooms` (
  `crID` int(11) NOT NULL AUTO_INCREMENT,
  `aID` int(11) NOT NULL,
  `crNAME` varchar(255) NOT NULL,
  `crPASSWORD` varchar(255) DEFAULT NULL,
  `status` int(11) NOT NULL,
  PRIMARY KEY (`crID`),
  KEY `aID` (`aID`),
  CONSTRAINT `doit_chatrooms_ibfk_1` FOREIGN KEY (`aID`) REFERENCES `doit_users` (`uID`) ON UPDATE CASCADE
) ENGINE=InnoDB DEFAULT CHARSET=utf8;

INSERT INTO `doit_chatrooms` (`crID`, `aID`, `crNAME`, `crPASSWORD`, `status`) VALUES
(1,	1,	'DEFAULT',	NULL,	1),
(6,	1,	'Demo',	'4630318c0ee549761956734de329974ba764807f',	1);

DROP TABLE IF EXISTS `doit_colorsettings`;
CREATE TABLE `doit_colorsettings` (
  `uID` int(11) NOT NULL,
  `background` varchar(25) NOT NULL,
  `chatwindow` varchar(25) NOT NULL,
  `pcolor` varchar(25) NOT NULL,
  `whoisonline` varchar(25) NOT NULL,
  `highlight_user` varchar(25) NOT NULL,
  KEY `uID` (`uID`),
  CONSTRAINT `doit_colorsettings_ibfk_2` FOREIGN KEY (`uID`) REFERENCES `doit_users` (`uID`) ON UPDATE CASCADE
) ENGINE=InnoDB DEFAULT CHARSET=utf8;

INSERT INTO `doit_colorsettings` (`uID`, `background`, `chatwindow`, `pcolor`, `whoisonline`, `highlight_user`) VALUES
(1,	'#AFAFAF',	'red',	'#FFFFFF',	'lightblue',	'blue');

DROP TABLE IF EXISTS `doit_emoticons`;
CREATE TABLE `doit_emoticons` (
  `id` int(11) NOT NULL AUTO_INCREMENT,
  `shorttag` varchar(50) CHARACTER SET utf8 COLLATE utf8_bin NOT NULL,
  `image` varchar(255) NOT NULL,
  `credits` varchar(255) NOT NULL,
  `status` int(11) NOT NULL,
  PRIMARY KEY (`id`)
) ENGINE=InnoDB DEFAULT CHARSET=utf8;

INSERT INTO `doit_emoticons` (`id`, `shorttag`, `image`, `credits`, `status`) VALUES
(1,	':-)',	'./../images/emoticons/happy.png',	'<div>Icons made by <a href=\"https://www.flaticon.com/authors/roundicons\" title=\"Roundicons\">Roundicons</a> from <a href=\"https://www.flaticon.com/\" title=\"Flaticon\">www.flaticon.com</a> is licensed by <a href=\"http://creativecommons.org/licenses/by/3.0/\" ',	0),
(2,	':-D',	'./../images/emoticons/laughing.png',	'<div>Icons made by <a href=\"https://www.flaticon.com/authors/roundicons\" title=\"Roundicons\">Roundicons</a> from <a href=\"https://www.flaticon.com/\" title=\"Flaticon\">www.flaticon.com</a> is licensed by <a href=\"http://creativecommons.org/licenses/by/3.0/\" ',	0),
(3,	':-(',	'./../images/emoticons/frown.png',	'<div>Icons made by <a href=\"https://www.flaticon.com/authors/roundicons\" title=\"Roundicons\">Roundicons</a> from <a href=\"https://www.flaticon.com/\" title=\"Flaticon\">www.flaticon.com</a> is licensed by <a href=\"http://creativecommons.org/licenses/by/3.0/\" ',	0),
(4,	':\'-(',	'./../images/emoticons/crying.png',	'<div>Icons made by <a href=\"https://www.flaticon.com/authors/roundicons\" title=\"Roundicons\">Roundicons</a> from <a href=\"https://www.flaticon.com/\" title=\"Flaticon\">www.flaticon.com</a> is licensed by <a href=\"http://creativecommons.org/licenses/by/3.0/\" ',	0);

DROP TABLE IF EXISTS `doit_register`;
CREATE TABLE `doit_register` (
  `regID` int(11) NOT NULL AUTO_INCREMENT,
  `username` varchar(25) NOT NULL,
  `firstname` varchar(50) NOT NULL,
  `lastname` varchar(50) NOT NULL,
  `email` varchar(75) NOT NULL,
  `password` varchar(255) NOT NULL,
  `regdate` int(11) NOT NULL,
  `status` int(11) NOT NULL,
  PRIMARY KEY (`regID`),
  KEY `regID` (`regID`)
) ENGINE=InnoDB DEFAULT CHARSET=utf8;

DROP TABLE IF EXISTS `doit_sessions`;
CREATE TABLE `doit_sessions` (
  `uID` int(11) NOT NULL,
  `crID` int(11) DEFAULT NULL,
  `sessionID` varchar(255) NOT NULL,
  `remoteADDR` varchar(255) NOT NULL,
  `timestamp` int(11) NOT NULL,
  `status` int(11) NOT NULL,
  KEY `uID` (`uID`),
  KEY `crID` (`crID`),
  CONSTRAINT `doit_sessions_ibfk_3` FOREIGN KEY (`uID`) REFERENCES `doit_users` (`uID`) ON UPDATE CASCADE,
  CONSTRAINT `doit_sessions_ibfk_4` FOREIGN KEY (`crID`) REFERENCES `doit_chatrooms` (`crID`) ON UPDATE CASCADE
) ENGINE=InnoDB DEFAULT CHARSET=utf8;


DROP TABLE IF EXISTS `doit_userblacklist`;
CREATE TABLE `doit_userblacklist` (
  `id` int(11) NOT NULL AUTO_INCREMENT,
  `uID` int(11) NOT NULL,
  `blackID` int(11) NOT NULL,
  PRIMARY KEY (`id`),
  KEY `uID` (`uID`),
  CONSTRAINT `doit_userblacklist_ibfk_1` FOREIGN KEY (`uID`) REFERENCES `doit_users` (`uID`) ON DELETE CASCADE
) ENGINE=InnoDB DEFAULT CHARSET=utf8;

INSERT INTO `doit_userblacklist` (`id`, `uID`, `blackID`) VALUES
(8,	1,	3);

DROP TABLE IF EXISTS `doit_users`;
CREATE TABLE `doit_users` (
  `uID` int(11) NOT NULL AUTO_INCREMENT,
  `regID` int(11) NOT NULL,
  `username` varchar(25) NOT NULL,
  `firstname` varchar(50) DEFAULT NULL,
  `lastname` varchar(50) DEFAULT NULL,
  `email` varchar(75) DEFAULT NULL,
  `password` varchar(255) DEFAULT NULL,
  `is_u_admin` int(11) DEFAULT NULL,
  `colorsettings` int(11) DEFAULT NULL,
  `chatrooms` int(11) DEFAULT NULL,
  `blacklist` int(11) DEFAULT NULL,
  `regdate` int(11) DEFAULT NULL,
  `status` int(11) DEFAULT NULL,
  PRIMARY KEY (`uID`),
  KEY `regID` (`regID`),
  CONSTRAINT `doit_users_ibfk_3` FOREIGN KEY (`regID`) REFERENCES `doit_register` (`regID`) ON UPDATE CASCADE
) ENGINE=InnoDB DEFAULT CHARSET=utf8;

INSERT INTO `doit_users` (`uID`, `regID`, `username`, `firstname`, `lastname`, `email`, `password`, `is_u_admin`, `colorsettings`, `chatrooms`, `blacklist`, `regdate`, `status`) VALUES
(2,	2,	'account',	'Demo',	'Account',	'example@example.org',	'a8b94a8786a72f608b6291bda65824c7c77c8849',	1,	0,	0,	0,	1516959364,	1);

-- 2018-02-26 09:32:22